<svg width="161" height="100" xmlns="http://www.w3.org/2000/svg">
    <g fill-rule="nonzero" fill="none">
        <path d="M145.598 99.998H2.132A2.13 2.13 0 0 1 0 97.871V20.295a2.13 2.13 0 0 1 2.132-2.127h143.466a2.13 2.13 0 0 1 2.133 2.127v77.576a2.13 2.13 0 0 1-2.133 2.127z" fill="#F7EAD4"/>
        <path d="M147.73 20.297v77.575A2.131 2.131 0 0 1 145.6 100h-5.6a2.13 2.13 0 0 0 2.131-2.127V20.297a2.13 2.13 0 0 0-2.132-2.13h5.6c1.177 0 2.133.954 2.133 2.13z" fill="#F7EAD4"/>
        <path d="M134.88 37.75a3.9 3.9 0 0 1-3.903-3.894V30.79a.674.674 0 0 0-.675-.674H17.43a.674.674 0 0 0-.675.674v3.066a3.9 3.9 0 0 1-3.905 3.894.674.674 0 0 0-.675.674v41.319c0 .372.302.673.675.673a3.9 3.9 0 0 1 3.905 3.895v3.065c0 .372.302.674.675.674h112.872a.674.674 0 0 0 .675-.674v-3.065a3.9 3.9 0 0 1 3.904-3.895.674.674 0 0 0 .675-.673v-41.32a.674.674 0 0 0-.675-.673z" fill="#E8C484"/>
        <path d="M135.557 38.424v41.318a.674.674 0 0 1-.675.674 3.899 3.899 0 0 0-3.906 3.895v3.064a.674.674 0 0 1-.675.674h-6.754c.371 0 .675-.3.675-.674v-3.064a3.898 3.898 0 0 1 3.902-3.895c.375 0 .675-.3.675-.674V38.424c0-.37-.3-.674-.675-.674a3.899 3.899 0 0 1-3.902-3.895V30.79a.674.674 0 0 0-.675-.674h6.754c.372 0 .675.3.675.674v3.064a3.899 3.899 0 0 0 3.906 3.895c.37 0 .675.303.675.674z" fill="#E3BC76"/>
        <ellipse fill="#EBD4AC" cx="73.865" cy="59.083" rx="20.238" ry="20.187"/>
        <path d="M76.384 57.495a55.9 55.9 0 0 1-1.149-.418V50.95c.97.23 1.549.72 1.6.764a1.296 1.296 0 0 0 1.818-.081 1.287 1.287 0 0 0-.074-1.823c-.074-.068-1.314-1.182-3.344-1.485v-1.253c0-.712-.578-1.29-1.293-1.29-.714 0-1.293.578-1.293 1.29v1.352c-.193.042-.39.091-.59.152-1.854.557-3.24 2.14-3.616 4.13-.343 1.815.24 3.566 1.521 4.568.68.532 1.526 1.019 2.685 1.533v7.766c-1.004-.073-1.7-.317-2.84-1.061a1.295 1.295 0 0 0-1.79.373 1.288 1.288 0 0 0 .375 1.786c1.659 1.082 2.791 1.404 4.255 1.486v1.403c0 .712.58 1.29 1.293 1.29.715 0 1.293-.578 1.293-1.29v-1.506c2.91-.568 4.61-2.96 4.988-5.196.484-2.872-1.023-5.37-3.839-6.363zm-4.824-2.25c-.518-.406-.739-1.195-.576-2.06.147-.777.662-1.71 1.665-2.085v4.839a7.832 7.832 0 0 1-1.089-.694zm6.112 8.186c-.2 1.188-1.03 2.446-2.437 2.946v-6.552l.288.102c2.4.847 2.252 2.896 2.15 3.504z" fill="#C2984C"/>
        <path d="M156.32 100h-35.153a4.674 4.674 0 0 1-4.68-4.67v-6.094a4.674 4.674 0 0 1 4.68-4.668h35.152c2.585 0 4.68 2.09 4.68 4.668v6.095a4.674 4.674 0 0 1-4.68 4.668z" fill="#FEA613"/>
        <path d="M156.32 84.597h-35.153a4.674 4.674 0 0 1-4.68-4.668v-6.095a4.674 4.674 0 0 1 4.68-4.668h35.152c2.585 0 4.68 2.09 4.68 4.668v6.095a4.674 4.674 0 0 1-4.68 4.668z" fill="#FEC165"/>
        <path d="M161 89.235v6.096a4.676 4.676 0 0 1-4.68 4.669h-6.29c2.585 0 4.68-2.09 4.68-4.669v-6.096c0-2.41-1.83-4.388-4.179-4.64h-.5c.113 0 .226-.003.335-.012a3.83 3.83 0 0 0-.335-.013h6.289a4.672 4.672 0 0 1 4.68 4.665z" fill="#FE9901"/>
        <path d="M161 73.834v6.096a4.672 4.672 0 0 1-4.68 4.666h-6.29c.114 0 .227-.004.336-.013a3.83 3.83 0 0 0-.335-.013h.5c2.349-.251 4.18-2.23 4.18-4.64v-6.096a4.676 4.676 0 0 0-4.68-4.668h6.289a4.676 4.676 0 0 1 4.68 4.668z" fill="#FDB441"/>
        <path d="M156.32 69.523h-35.153a4.674 4.674 0 0 1-4.68-4.668V58.76a4.674 4.674 0 0 1 4.68-4.668h35.152c2.585 0 4.68 2.09 4.68 4.668v6.095a4.674 4.674 0 0 1-4.68 4.668z" fill="#FEA613"/>
        <path d="M161 58.76v6.095a4.676 4.676 0 0 1-4.68 4.669h-6.29c2.585 0 4.68-2.09 4.68-4.669V58.76c0-2.41-1.83-4.388-4.179-4.64h-.5c.113 0 .226-.002.335-.012a3.83 3.83 0 0 0-.335-.013h6.289a4.672 4.672 0 0 1 4.68 4.665z" fill="#FE9901"/>
        <ellipse fill="#F7EAD4" cx="139.484" cy="21.354" rx="21.408" ry="21.354"/>
        <path d="m151.227 25.802-8.975 8.95a4.02 4.02 0 0 1-5.676 0l-8.777-8.755c-1.565-1.56-1.653-4.196-.196-5.857a3.729 3.729 0 0 1 5.494-.183l.938.936c.6.599 1.626.175 1.626-.672v-9.435a4.009 4.009 0 0 1 4.014-4.004 4.009 4.009 0 0 1 4.013 4.004v8.919c0 .846 1.026 1.27 1.627.671l.237-.236a4.02 4.02 0 0 1 5.676 0 3.997 3.997 0 0 1 0 5.662z" fill="#08B865"/>
        <path d="M152.402 22.97c0-1.023-.391-2.05-1.174-2.83a4.022 4.022 0 0 0-5.677 0l-.238.237c-.6.598-1.626.175-1.626-.674v-8.916a4.006 4.006 0 0 0-4.014-4.004c-.766 0-1.48.213-2.09.584a3.839 3.839 0 0 1 1.822 3.27v5.595c0 2.535-.29 5.218 2.052 6.847.474.325 1.07.396 1.615.579.722.243 1.174.808 1.36 1.465.18.634.112 1.354-.192 1.957-.657 1.294-1.844 2.26-2.854 3.27-1.121 1.116-2.24 2.235-3.362 3.354a3.834 3.834 0 0 1-1.552.945l.104.104a4.018 4.018 0 0 0 5.675 0l8.974-8.95a3.984 3.984 0 0 0 1.177-2.833z" fill="#09A35A"/>
    </g>
</svg>
